<?xml version="1.0"?>
<!DOCTYPE svg PUBLIC '-//W3C//DTD SVG 1.0//EN'
          'http://www.w3.org/TR/2001/REC-SVG-20010904/DTD/svg10.dtd'>
<svg xmlns:xlink="http://www.w3.org/1999/xlink" style="fill-opacity:1; color-rendering:auto; color-interpolation:auto; stroke:black; text-rendering:auto; stroke-linecap:square; stroke-miterlimit:10; stroke-opacity:1; shape-rendering:auto; fill:black; stroke-dasharray:none; font-weight:normal; stroke-width:1; font-family:'Dialog'; font-style:normal; stroke-linejoin:miter; font-size:12px; stroke-dashoffset:0; image-rendering:auto;" width="1920" height="964" xmlns="http://www.w3.org/2000/svg"
><!--Generated by the Batik Graphics2D SVG Generator--><defs id="genericDefs"
  /><g
  ><defs id="defs1"
    ><clipPath clipPathUnits="userSpaceOnUse" id="clipPath1"
      ><path d="M0 0 L1920 0 L1920 964 L0 964 L0 0 Z"
      /></clipPath
      ><font horiz-adv-x="75.0" id="font1"
      ><font-face ascent="100.53711" descent="21.972656" units-per-em="100" style="font-style:normal; font-family:Dialog; font-weight:normal;"
        /><missing-glyph horiz-adv-x="75.0" d="M12.5 0 L12.5 62.5 L62.5 62.5 L62.5 0 L12.5 0 ZM14.0625 1.5625 L60.9375 1.5625 L60.9375 60.9375 L14.0625 60.9375 L14.0625 1.5625 Z"
        /><glyph unicode="0" horiz-adv-x="55.615234" d="M4.1562 35.2969 Q4.1562 48 6.7656 55.7422 Q9.375 63.4844 14.5234 67.6797 Q19.6719 71.875 27.4844 71.875 Q33.25 71.875 37.5938 69.5547 Q41.9375 67.2344 44.7734 62.8672 Q47.6094 58.5 49.2188 52.2266 Q50.8281 45.9531 50.8281 35.2969 Q50.8281 22.7031 48.2422 14.9688 Q45.6562 7.2344 40.5078 3.0078 Q35.3594 -1.2188 27.4844 -1.2188 Q17.1406 -1.2188 11.2344 6.2031 Q4.1562 15.1406 4.1562 35.2969 ZM13.1875 35.2969 Q13.1875 17.6719 17.3125 11.8359 Q21.4375 6 27.4844 6 Q33.5469 6 37.6719 11.8594 Q41.7969 17.7188 41.7969 35.2969 Q41.7969 52.9844 37.6719 58.7891 Q33.5469 64.5938 27.3906 64.5938 Q21.3438 64.5938 17.7188 59.4688 Q13.1875 52.9375 13.1875 35.2969 Z"
        /><glyph unicode="5" horiz-adv-x="55.615234" d="M4.1562 18.75 L13.375 19.5312 Q14.4062 12.7969 18.1406 9.3984 Q21.875 6 27.1562 6 Q33.5 6 37.8906 10.7891 Q42.2812 15.5781 42.2812 23.4844 Q42.2812 31 38.0625 35.3516 Q33.8438 39.7031 27 39.7031 Q22.75 39.7031 19.3359 37.7734 Q15.9219 35.8438 13.9688 32.7656 L5.7188 33.8438 L12.6406 70.6094 L48.25 70.6094 L48.25 62.2031 L19.6719 62.2031 L15.8281 42.9688 Q22.2656 47.4688 29.3438 47.4688 Q38.7188 47.4688 45.1641 40.9688 Q51.6094 34.4688 51.6094 24.2656 Q51.6094 14.5469 45.9531 7.4688 Q39.0625 -1.2188 27.1562 -1.2188 Q17.3906 -1.2188 11.2109 4.25 Q5.0312 9.7188 4.1562 18.75 Z"
        /><glyph unicode="." horiz-adv-x="27.783203" d="M9.0781 0 L9.0781 10.0156 L19.0938 10.0156 L19.0938 0 L9.0781 0 Z"
        /><glyph unicode="1" horiz-adv-x="55.615234" d="M37.25 0 L28.4688 0 L28.4688 56 Q25.2969 52.9844 20.1406 49.9531 Q14.9844 46.9219 10.8906 45.4062 L10.8906 53.9062 Q18.2656 57.375 23.7812 62.3047 Q29.2969 67.2344 31.5938 71.875 L37.25 71.875 L37.25 0 Z"
        /><glyph unicode="2" horiz-adv-x="55.615234" d="M50.3438 8.4531 L50.3438 0 L3.0312 0 Q2.9375 3.1719 4.0469 6.1094 Q5.8594 10.9375 9.8359 15.625 Q13.8125 20.3125 21.3438 26.4688 Q33.0156 36.0312 37.1172 41.625 Q41.2188 47.2188 41.2188 52.2031 Q41.2188 57.4219 37.4766 61.0078 Q33.7344 64.5938 27.7344 64.5938 Q21.3906 64.5938 17.5781 60.7891 Q13.7656 56.9844 13.7188 50.25 L4.6875 51.1719 Q5.6094 61.2812 11.6641 66.5781 Q17.7188 71.875 27.9375 71.875 Q38.2344 71.875 44.2422 66.1641 Q50.25 60.4531 50.25 52 Q50.25 47.7031 48.4922 43.5547 Q46.7344 39.4062 42.6562 34.8125 Q38.5781 30.2188 29.1094 22.2188 Q21.1875 15.5781 18.9453 13.2109 Q16.7031 10.8438 15.2344 8.4531 L50.3438 8.4531 Z"
        /><glyph unicode="3" horiz-adv-x="55.615234" d="M4.2031 18.8906 L12.9844 20.0625 Q14.5 12.5938 18.1406 9.2969 Q21.7812 6 27 6 Q33.2031 6 37.4766 10.2969 Q41.75 14.5938 41.75 20.9531 Q41.75 27 37.7969 30.9297 Q33.8438 34.8594 27.7344 34.8594 Q25.25 34.8594 21.5312 33.8906 L22.5156 41.6094 Q23.3906 41.5 23.9219 41.5 Q29.5469 41.5 34.0391 44.4297 Q38.5312 47.3594 38.5312 53.4688 Q38.5312 58.2969 35.2578 61.4766 Q31.9844 64.6562 26.8125 64.6562 Q21.6875 64.6562 18.2656 61.4297 Q14.8438 58.2031 13.875 51.7656 L5.0781 53.3281 Q6.6875 62.1562 12.3984 67.0156 Q18.1094 71.875 26.6094 71.875 Q32.4688 71.875 37.3984 69.3594 Q42.3281 66.8438 44.9453 62.5 Q47.5625 58.1562 47.5625 53.2656 Q47.5625 48.6406 45.0703 44.8281 Q42.5781 41.0156 37.7031 38.7656 Q44.0469 37.3125 47.5625 32.6953 Q51.0781 28.0781 51.0781 21.1406 Q51.0781 11.7656 44.2422 5.25 Q37.4062 -1.2656 26.9531 -1.2656 Q17.5312 -1.2656 11.3047 4.3516 Q5.0781 9.9688 4.2031 18.8906 Z"
        /><glyph unicode="4" horiz-adv-x="55.615234" d="M32.3281 0 L32.3281 17.1406 L1.2656 17.1406 L1.2656 25.2031 L33.9375 71.5781 L41.1094 71.5781 L41.1094 25.2031 L50.7812 25.2031 L50.7812 17.1406 L41.1094 17.1406 L41.1094 0 L32.3281 0 ZM32.3281 25.2031 L32.3281 57.4688 L9.9062 25.2031 L32.3281 25.2031 Z"
        /><glyph unicode="n" horiz-adv-x="55.615234" d="M6.5938 0 L6.5938 51.8594 L14.5 51.8594 L14.5 44.4844 Q20.2188 53.0312 31 53.0312 Q35.6875 53.0312 39.625 51.3438 Q43.5625 49.6562 45.5156 46.9219 Q47.4688 44.1875 48.25 40.4375 Q48.7344 37.9844 48.7344 31.8906 L48.7344 0 L39.9375 0 L39.9375 31.5469 Q39.9375 36.9219 38.9141 39.5781 Q37.8906 42.2344 35.2812 43.8203 Q32.6719 45.4062 29.1562 45.4062 Q23.5312 45.4062 19.4531 41.8438 Q15.375 38.2812 15.375 28.3281 L15.375 0 L6.5938 0 Z"
        /><glyph unicode="i" horiz-adv-x="22.216797" d="M6.6406 61.4688 L6.6406 71.5781 L15.4375 71.5781 L15.4375 61.4688 L6.6406 61.4688 ZM6.6406 0 L6.6406 51.8594 L15.4375 51.8594 L15.4375 0 L6.6406 0 Z"
        /><glyph unicode="d" horiz-adv-x="55.615234" d="M40.2344 0 L40.2344 6.5469 Q35.2969 -1.1719 25.7344 -1.1719 Q19.5312 -1.1719 14.3281 2.25 Q9.125 5.6719 6.2734 11.7969 Q3.4219 17.9219 3.4219 25.875 Q3.4219 33.6406 6.0078 39.9688 Q8.5938 46.2969 13.7734 49.6641 Q18.9531 53.0312 25.3438 53.0312 Q30.0312 53.0312 33.6953 51.0547 Q37.3594 49.0781 39.6562 45.9062 L39.6562 71.5781 L48.3906 71.5781 L48.3906 0 L40.2344 0 ZM12.4531 25.875 Q12.4531 15.9219 16.6484 10.9922 Q20.8438 6.0625 26.5625 6.0625 Q32.3281 6.0625 36.3516 10.7734 Q40.375 15.4844 40.375 25.1406 Q40.375 35.7969 36.2734 40.7734 Q32.1719 45.75 26.1719 45.75 Q20.3125 45.75 16.3828 40.9688 Q12.4531 36.1875 12.4531 25.875 Z"
        /><glyph unicode="m" horiz-adv-x="83.30078" d="M6.5938 0 L6.5938 51.8594 L14.4531 51.8594 L14.4531 44.5781 Q16.8906 48.3906 20.9453 50.7109 Q25 53.0312 30.1719 53.0312 Q35.9375 53.0312 39.625 50.6406 Q43.3125 48.25 44.8281 43.9531 Q50.9844 53.0312 60.8438 53.0312 Q68.5625 53.0312 72.7109 48.7578 Q76.8594 44.4844 76.8594 35.5938 L76.8594 0 L68.1094 0 L68.1094 32.6719 Q68.1094 37.9375 67.2578 40.2578 Q66.4062 42.5781 64.1641 43.9922 Q61.9219 45.4062 58.8906 45.4062 Q53.4219 45.4062 49.8047 41.7734 Q46.1875 38.1406 46.1875 30.125 L46.1875 0 L37.4062 0 L37.4062 33.6875 Q37.4062 39.5469 35.2578 42.4766 Q33.1094 45.4062 28.2188 45.4062 Q24.5156 45.4062 21.3672 43.4531 Q18.2188 41.5 16.7969 37.7422 Q15.375 33.9844 15.375 26.9062 L15.375 0 L6.5938 0 Z"
        /><glyph unicode=" " horiz-adv-x="27.783203" d=""
        /><glyph unicode="e" horiz-adv-x="55.615234" d="M42.0938 16.7031 L51.1719 15.5781 Q49.0312 7.625 43.2188 3.2266 Q37.4062 -1.1719 28.375 -1.1719 Q17 -1.1719 10.3281 5.8359 Q3.6562 12.8438 3.6562 25.4844 Q3.6562 38.5781 10.3984 45.8047 Q17.1406 53.0312 27.875 53.0312 Q38.2812 53.0312 44.875 45.9531 Q51.4688 38.875 51.4688 26.0312 Q51.4688 25.25 51.4219 23.6875 L12.75 23.6875 Q13.2344 15.1406 17.5781 10.6016 Q21.9219 6.0625 28.4219 6.0625 Q33.25 6.0625 36.6719 8.6016 Q40.0938 11.1406 42.0938 16.7031 ZM13.2344 30.9062 L42.1875 30.9062 Q41.6094 37.4531 38.875 40.7188 Q34.6719 45.7969 27.9844 45.7969 Q21.9219 45.7969 17.7969 41.75 Q13.6719 37.7031 13.2344 30.9062 Z"
        /><glyph unicode="s" horiz-adv-x="50.0" d="M3.0781 15.4844 L11.7656 16.8438 Q12.5 11.625 15.8438 8.8438 Q19.1875 6.0625 25.2031 6.0625 Q31.25 6.0625 34.1797 8.5234 Q37.1094 10.9844 37.1094 14.3125 Q37.1094 17.2812 34.5156 19 Q32.7188 20.1719 25.5312 21.9688 Q15.875 24.4219 12.1406 26.2031 Q8.4062 27.9844 6.4766 31.1328 Q4.5469 34.2812 4.5469 38.0938 Q4.5469 41.5469 6.1328 44.5078 Q7.7188 47.4688 10.4531 49.4219 Q12.5 50.9219 16.0391 51.9766 Q19.5781 53.0312 23.6406 53.0312 Q29.7344 53.0312 34.3516 51.2734 Q38.9688 49.5156 41.1641 46.5078 Q43.3594 43.5 44.1875 38.4844 L35.5938 37.3125 Q35.0156 41.3125 32.2031 43.5547 Q29.3906 45.7969 24.2656 45.7969 Q18.2188 45.7969 15.625 43.7969 Q13.0312 41.7969 13.0312 39.1094 Q13.0312 37.4062 14.1094 36.0312 Q15.1875 34.625 17.4844 33.6875 Q18.7969 33.2031 25.25 31.4531 Q34.5781 28.9531 38.2578 27.3672 Q41.9375 25.7812 44.0391 22.7578 Q46.1406 19.7344 46.1406 15.2344 Q46.1406 10.8438 43.5781 6.9609 Q41.0156 3.0781 36.1797 0.9531 Q31.3438 -1.1719 25.25 -1.1719 Q15.1406 -1.1719 9.8438 3.0312 Q4.5469 7.2344 3.0781 15.4844 Z"
        /><glyph unicode="t" horiz-adv-x="27.783203" d="M25.7812 7.8594 L27.0469 0.0938 Q23.3438 -0.6875 20.4062 -0.6875 Q15.625 -0.6875 12.9922 0.8281 Q10.3594 2.3438 9.2812 4.8125 Q8.2031 7.2812 8.2031 15.1875 L8.2031 45.0156 L1.7656 45.0156 L1.7656 51.8594 L8.2031 51.8594 L8.2031 64.7031 L16.9375 69.9688 L16.9375 51.8594 L25.7812 51.8594 L25.7812 45.0156 L16.9375 45.0156 L16.9375 14.7031 Q16.9375 10.9375 17.4062 9.8672 Q17.875 8.7969 18.9219 8.1562 Q19.9688 7.5156 21.9219 7.5156 Q23.3906 7.5156 25.7812 7.8594 Z"
        /><glyph unicode="a" horiz-adv-x="55.615234" d="M40.4375 6.3906 Q35.5469 2.25 31.0312 0.5391 Q26.5156 -1.1719 21.3438 -1.1719 Q12.7969 -1.1719 8.2031 3 Q3.6094 7.1719 3.6094 13.6719 Q3.6094 17.4844 5.3438 20.6328 Q7.0781 23.7812 9.8906 25.6875 Q12.7031 27.5938 16.2188 28.5625 Q18.7969 29.25 24.0312 29.8906 Q34.6719 31.1562 39.7031 32.9062 Q39.75 34.7188 39.75 35.2031 Q39.75 40.5781 37.25 42.7812 Q33.8906 45.75 27.25 45.75 Q21.0469 45.75 18.0938 43.5781 Q15.1406 41.4062 13.7188 35.8906 L5.125 37.0625 Q6.2969 42.5781 8.9844 45.9688 Q11.6719 49.3594 16.75 51.1953 Q21.8281 53.0312 28.5156 53.0312 Q35.1562 53.0312 39.3047 51.4688 Q43.4531 49.9062 45.4062 47.5391 Q47.3594 45.1719 48.1406 41.5469 Q48.5781 39.3125 48.5781 33.4531 L48.5781 21.7344 Q48.5781 9.4688 49.1406 6.2266 Q49.7031 2.9844 51.375 0 L42.1875 0 Q40.8281 2.7344 40.4375 6.3906 ZM39.7031 26.0312 Q34.9062 24.0781 25.3438 22.7031 Q19.9219 21.9219 17.6797 20.9453 Q15.4375 19.9688 14.2109 18.0938 Q12.9844 16.2188 12.9844 13.9219 Q12.9844 10.4062 15.6484 8.0625 Q18.3125 5.7188 23.4375 5.7188 Q28.5156 5.7188 32.4688 7.9375 Q36.4219 10.1562 38.2812 14.0156 Q39.7031 17 39.7031 22.7969 L39.7031 26.0312 Z"
        /><glyph unicode="D" horiz-adv-x="72.2168" d="M7.7188 0 L7.7188 71.5781 L32.375 71.5781 Q40.7188 71.5781 45.125 70.5625 Q51.2656 69.1406 55.6094 65.4375 Q61.2812 60.6406 64.0859 53.1953 Q66.8906 45.75 66.8906 36.1875 Q66.8906 28.0312 64.9922 21.7344 Q63.0938 15.4375 60.1094 11.3047 Q57.125 7.1719 53.5859 4.8047 Q50.0469 2.4375 45.0469 1.2188 Q40.0469 0 33.5469 0 L7.7188 0 ZM17.1875 8.4531 L32.4688 8.4531 Q39.5469 8.4531 43.5781 9.7656 Q47.6094 11.0781 50 13.4844 Q53.375 16.8438 55.25 22.5312 Q57.125 28.2188 57.125 36.3281 Q57.125 47.5625 53.4375 53.5938 Q49.75 59.625 44.4844 61.6719 Q40.6719 63.1406 32.2344 63.1406 L17.1875 63.1406 L17.1875 8.4531 Z"
        /><glyph unicode="8" horiz-adv-x="55.615234" d="M17.6719 38.8125 Q12.2031 40.8281 9.5703 44.5391 Q6.9375 48.25 6.9375 53.4219 Q6.9375 61.2344 12.5547 66.5547 Q18.1719 71.875 27.4844 71.875 Q36.8594 71.875 42.5781 66.4297 Q48.2969 60.9844 48.2969 53.1719 Q48.2969 48.1875 45.6797 44.5078 Q43.0625 40.8281 37.75 38.8125 Q44.3438 36.6719 47.7812 31.8828 Q51.2188 27.0938 51.2188 20.4531 Q51.2188 11.2812 44.7266 5.0312 Q38.2344 -1.2188 27.6406 -1.2188 Q17.0469 -1.2188 10.5469 5.0547 Q4.0469 11.3281 4.0469 20.7031 Q4.0469 27.6875 7.5938 32.3984 Q11.1406 37.1094 17.6719 38.8125 ZM15.9219 53.7188 Q15.9219 48.6406 19.1953 45.4141 Q22.4688 42.1875 27.6875 42.1875 Q32.7656 42.1875 36.0156 45.3828 Q39.2656 48.5781 39.2656 53.2188 Q39.2656 58.0625 35.9141 61.3594 Q32.5625 64.6562 27.5938 64.6562 Q22.5625 64.6562 19.2422 61.4297 Q15.9219 58.2031 15.9219 53.7188 ZM13.0938 20.6562 Q13.0938 16.8906 14.875 13.375 Q16.6562 9.8594 20.1719 7.9297 Q23.6875 6 27.7344 6 Q34.0312 6 38.1328 10.0547 Q42.2344 14.1094 42.2344 20.3594 Q42.2344 26.7031 38.0156 30.8594 Q33.7969 35.0156 27.4375 35.0156 Q21.2344 35.0156 17.1641 30.9141 Q13.0938 26.8125 13.0938 20.6562 Z"
        /><glyph unicode="6" horiz-adv-x="55.615234" d="M49.75 54.0469 L41.0156 53.375 Q39.8438 58.5469 37.7031 60.8906 Q34.125 64.6562 28.9062 64.6562 Q24.7031 64.6562 21.5312 62.3125 Q17.3906 59.2812 14.9922 53.4688 Q12.5938 47.6562 12.5 36.9219 Q15.6719 41.75 20.2656 44.0938 Q24.8594 46.4375 29.8906 46.4375 Q38.6719 46.4375 44.8516 39.9688 Q51.0312 33.5 51.0312 23.25 Q51.0312 16.5 48.125 10.7188 Q45.2188 4.9375 40.1406 1.8594 Q35.0625 -1.2188 28.6094 -1.2188 Q17.625 -1.2188 10.6953 6.8594 Q3.7656 14.9375 3.7656 33.5 Q3.7656 54.25 11.4219 63.6719 Q18.1094 71.875 29.4375 71.875 Q37.8906 71.875 43.2891 67.1406 Q48.6875 62.4062 49.75 54.0469 ZM13.875 23.1875 Q13.875 18.6562 15.7969 14.5078 Q17.7188 10.3594 21.1875 8.1797 Q24.6562 6 28.4688 6 Q34.0312 6 38.0391 10.4922 Q42.0469 14.9844 42.0469 22.7031 Q42.0469 30.125 38.0859 34.3984 Q34.125 38.6719 28.125 38.6719 Q22.1719 38.6719 18.0234 34.3984 Q13.875 30.125 13.875 23.1875 Z"
        /><glyph unicode="c" horiz-adv-x="50.0" d="M40.4375 19 L49.0781 17.875 Q47.6562 8.9375 41.8203 3.8828 Q35.9844 -1.1719 27.4844 -1.1719 Q16.8438 -1.1719 10.375 5.7891 Q3.9062 12.75 3.9062 25.7344 Q3.9062 34.125 6.6875 40.4297 Q9.4688 46.7344 15.1562 49.8828 Q20.8438 53.0312 27.5469 53.0312 Q35.9844 53.0312 41.3594 48.7578 Q46.7344 44.4844 48.25 36.625 L39.7031 35.2969 Q38.4844 40.5312 35.3828 43.1641 Q32.2812 45.7969 27.875 45.7969 Q21.2344 45.7969 17.0859 41.0391 Q12.9375 36.2812 12.9375 25.9844 Q12.9375 15.5312 16.9453 10.7969 Q20.9531 6.0625 27.3906 6.0625 Q32.5625 6.0625 36.0312 9.2344 Q39.5 12.4062 40.4375 19 Z"
        /><glyph unicode="f" horiz-adv-x="27.783203" d="M8.6875 0 L8.6875 45.0156 L0.9219 45.0156 L0.9219 51.8594 L8.6875 51.8594 L8.6875 57.375 Q8.6875 62.5938 9.625 65.1406 Q10.8906 68.5625 14.0859 70.6797 Q17.2812 72.7969 23.0469 72.7969 Q26.7656 72.7969 31.25 71.9219 L29.9375 64.2656 Q27.2031 64.75 24.75 64.75 Q20.75 64.75 19.0938 63.0391 Q17.4375 61.3281 17.4375 56.6406 L17.4375 51.8594 L27.5469 51.8594 L27.5469 45.0156 L17.4375 45.0156 L17.4375 0 L8.6875 0 Z"
        /><glyph unicode="l" horiz-adv-x="22.216797" d="M6.3906 0 L6.3906 71.5781 L15.1875 71.5781 L15.1875 0 L6.3906 0 Z"
        /><glyph unicode="o" horiz-adv-x="55.615234" d="M3.3281 25.9219 Q3.3281 40.3281 11.3281 47.2656 Q18.0156 53.0312 27.6406 53.0312 Q38.3281 53.0312 45.1172 46.0234 Q51.9062 39.0156 51.9062 26.6562 Q51.9062 16.6562 48.9062 10.9141 Q45.9062 5.1719 40.1641 2 Q34.4219 -1.1719 27.6406 -1.1719 Q16.75 -1.1719 10.0391 5.8125 Q3.3281 12.7969 3.3281 25.9219 ZM12.3594 25.9219 Q12.3594 15.9688 16.7031 11.0156 Q21.0469 6.0625 27.6406 6.0625 Q34.1875 6.0625 38.5312 11.0391 Q42.875 16.0156 42.875 26.2188 Q42.875 35.8438 38.5 40.7969 Q34.125 45.75 27.6406 45.75 Q21.0469 45.75 16.7031 40.8203 Q12.3594 35.8906 12.3594 25.9219 Z"
        /><glyph unicode="r" horiz-adv-x="33.30078" d="M6.5 0 L6.5 51.8594 L14.4062 51.8594 L14.4062 44 Q17.4375 49.5156 20 51.2734 Q22.5625 53.0312 25.6406 53.0312 Q30.0781 53.0312 34.6719 50.2031 L31.6406 42.0469 Q28.4219 43.9531 25.2031 43.9531 Q22.3125 43.9531 20.0156 42.2188 Q17.7188 40.4844 16.75 37.4062 Q15.2812 32.7188 15.2812 27.1562 L15.2812 0 L6.5 0 Z"
        /><glyph unicode="h" horiz-adv-x="55.615234" d="M6.5938 0 L6.5938 71.5781 L15.375 71.5781 L15.375 45.9062 Q21.5312 53.0312 30.9062 53.0312 Q36.6719 53.0312 40.9219 50.7578 Q45.1719 48.4844 47 44.4844 Q48.8281 40.4844 48.8281 32.8594 L48.8281 0 L40.0469 0 L40.0469 32.8594 Q40.0469 39.4531 37.1875 42.4531 Q34.3281 45.4531 29.1094 45.4531 Q25.2031 45.4531 21.7578 43.4297 Q18.3125 41.4062 16.8438 37.9375 Q15.375 34.4688 15.375 28.375 L15.375 0 L6.5938 0 Z"
        /><glyph unicode="T" horiz-adv-x="61.083984" d="M25.9219 0 L25.9219 63.1406 L2.3438 63.1406 L2.3438 71.5781 L59.0781 71.5781 L59.0781 63.1406 L35.4062 63.1406 L35.4062 0 L25.9219 0 Z"
      /></font
      ><font horiz-adv-x="75.0" id="font2"
      ><font-face ascent="100.53711" descent="21.972656" units-per-em="100" style="font-style:normal; font-family:Dialog; font-weight:bold;"
        /><missing-glyph horiz-adv-x="75.0" d="M12.5 0 L12.5 62.5 L62.5 62.5 L62.5 0 L12.5 0 ZM14.0625 1.5625 L60.9375 1.5625 L60.9375 60.9375 L14.0625 60.9375 L14.0625 1.5625 Z"
        /><glyph unicode="p" horiz-adv-x="61.083984" d="M6.7812 51.8594 L19.5781 51.8594 L19.5781 44.2344 Q22.0781 48.1406 26.3203 50.5859 Q30.5625 53.0312 35.75 53.0312 Q44.7812 53.0312 51.0781 45.9531 Q57.375 38.875 57.375 26.2188 Q57.375 13.2344 51.0234 6.0312 Q44.6719 -1.1719 35.6406 -1.1719 Q31.3438 -1.1719 27.8516 0.5391 Q24.3594 2.25 20.5156 6.3906 L20.5156 -19.7344 L6.7812 -19.7344 L6.7812 51.8594 ZM20.3594 26.8125 Q20.3594 18.0625 23.8281 13.8906 Q27.2969 9.7188 32.2812 9.7188 Q37.0625 9.7188 40.2344 13.5547 Q43.4062 17.3906 43.4062 26.125 Q43.4062 34.2812 40.1328 38.2344 Q36.8594 42.1875 32.0312 42.1875 Q27 42.1875 23.6797 38.3047 Q20.3594 34.4219 20.3594 26.8125 Z"
        /><glyph unicode="s" horiz-adv-x="55.615234" d="M2.3438 14.7969 L16.1094 16.8906 Q17 12.8906 19.6797 10.8125 Q22.3594 8.7344 27.2031 8.7344 Q32.5156 8.7344 35.2031 10.6875 Q37.0156 12.0625 37.0156 14.3594 Q37.0156 15.9219 36.0312 16.9375 Q35.0156 17.9219 31.4531 18.75 Q14.8438 22.4062 10.4062 25.4375 Q4.25 29.6406 4.25 37.1094 Q4.25 43.8438 9.5703 48.4375 Q14.8906 53.0312 26.0781 53.0312 Q36.7188 53.0312 41.8984 49.5625 Q47.0781 46.0938 49.0312 39.3125 L36.0781 36.9219 Q35.25 39.9375 32.9297 41.5547 Q30.6094 43.1719 26.3125 43.1719 Q20.9062 43.1719 18.5625 41.6562 Q17 40.5781 17 38.875 Q17 37.4062 18.3594 36.375 Q20.2188 35.0156 31.1797 32.5234 Q42.1406 30.0312 46.4844 26.4219 Q50.7812 22.75 50.7812 16.2188 Q50.7812 9.0781 44.8281 3.9531 Q38.875 -1.1719 27.2031 -1.1719 Q16.6094 -1.1719 10.4297 3.125 Q4.25 7.4219 2.3438 14.7969 Z"
        /><glyph unicode="h" horiz-adv-x="61.083984" d="M20.8438 71.5781 L20.8438 45.2656 Q27.4844 53.0312 36.7188 53.0312 Q41.4531 53.0312 45.2656 51.2734 Q49.0781 49.5156 51.0078 46.7812 Q52.9375 44.0469 53.6406 40.7266 Q54.3438 37.4062 54.3438 30.4219 L54.3438 0 L40.625 0 L40.625 27.3906 Q40.625 35.5469 39.8438 37.7422 Q39.0625 39.9375 37.0859 41.2344 Q35.1094 42.5312 32.125 42.5312 Q28.7188 42.5312 26.0312 40.8672 Q23.3438 39.2031 22.0938 35.8594 Q20.8438 32.5156 20.8438 25.9844 L20.8438 0 L7.125 0 L7.125 71.5781 L20.8438 71.5781 Z"
        /><glyph unicode="-" horiz-adv-x="33.30078" d="M5.6094 19.0938 L5.6094 32.8125 L32.5625 32.8125 L32.5625 19.0938 L5.6094 19.0938 Z"
        /><glyph unicode="d" horiz-adv-x="61.083984" d="M54.7344 0 L42 0 L42 7.625 Q38.8125 3.1719 34.4922 1 Q30.1719 -1.1719 25.7812 -1.1719 Q16.8438 -1.1719 10.4766 6.0312 Q4.1094 13.2344 4.1094 26.125 Q4.1094 39.3125 10.3047 46.1719 Q16.5 53.0312 25.9844 53.0312 Q34.6719 53.0312 41.0156 45.7969 L41.0156 71.5781 L54.7344 71.5781 L54.7344 0 ZM18.1094 27.0469 Q18.1094 18.75 20.4062 15.0469 Q23.7344 9.6719 29.6875 9.6719 Q34.4219 9.6719 37.7422 13.6953 Q41.0625 17.7188 41.0625 25.7344 Q41.0625 34.6719 37.8438 38.6016 Q34.625 42.5312 29.5938 42.5312 Q24.7031 42.5312 21.4062 38.6484 Q18.1094 34.7656 18.1094 27.0469 Z"
        /><glyph unicode="g" horiz-adv-x="61.083984" d="M5.9062 -3.4219 L21.5781 -5.3281 Q21.9688 -8.0625 23.3906 -9.0781 Q25.3438 -10.5469 29.5469 -10.5469 Q34.9062 -10.5469 37.5938 -8.9375 Q39.4062 -7.8594 40.3281 -5.4688 Q40.9688 -3.7656 40.9688 0.8281 L40.9688 8.4062 Q34.8125 0 25.4375 0 Q14.9844 0 8.8906 8.8438 Q4.1094 15.8281 4.1094 26.2188 Q4.1094 39.2656 10.3828 46.1484 Q16.6562 53.0312 25.9844 53.0312 Q35.5938 53.0312 41.8438 44.5781 L41.8438 51.8594 L54.6875 51.8594 L54.6875 5.3281 Q54.6875 -3.8594 53.1719 -8.3984 Q51.6562 -12.9375 48.9219 -15.5234 Q46.1875 -18.1094 41.625 -19.5781 Q37.0625 -21.0469 30.0781 -21.0469 Q16.8906 -21.0469 11.375 -16.5312 Q5.8594 -12.0156 5.8594 -5.0781 Q5.8594 -4.3906 5.9062 -3.4219 ZM18.1719 27 Q18.1719 18.75 21.3672 14.9141 Q24.5625 11.0781 29.25 11.0781 Q34.2812 11.0781 37.75 15.0156 Q41.2188 18.9531 41.2188 26.6562 Q41.2188 34.7188 37.8984 38.625 Q34.5781 42.5312 29.5 42.5312 Q24.5625 42.5312 21.3672 38.6953 Q18.1719 34.8594 18.1719 27 Z"
        /><glyph unicode="t" horiz-adv-x="33.30078" d="M30.9531 51.8594 L30.9531 40.9219 L21.5781 40.9219 L21.5781 20.0156 Q21.5781 13.6719 21.8516 12.625 Q22.125 11.5781 23.0781 10.8906 Q24.0312 10.2031 25.3906 10.2031 Q27.2969 10.2031 30.9062 11.5312 L32.0781 0.875 Q27.2969 -1.1719 21.2344 -1.1719 Q17.5312 -1.1719 14.5547 0.0703 Q11.5781 1.3125 10.1875 3.2969 Q8.7969 5.2812 8.25 8.6406 Q7.8125 11.0312 7.8125 18.3125 L7.8125 40.9219 L1.5156 40.9219 L1.5156 51.8594 L7.8125 51.8594 L7.8125 62.1562 L21.5781 70.1719 L21.5781 51.8594 L30.9531 51.8594 Z"
        /><glyph unicode="f" horiz-adv-x="33.30078" d="M1.1719 51.8594 L8.7969 51.8594 L8.7969 55.7656 Q8.7969 62.3125 10.1875 65.5312 Q11.5781 68.75 15.3125 70.7734 Q19.0469 72.7969 24.75 72.7969 Q30.6094 72.7969 36.2344 71.0469 L34.375 61.4688 Q31.1094 62.25 28.0781 62.25 Q25.0938 62.25 23.8047 60.8594 Q22.5156 59.4688 22.5156 55.5156 L22.5156 51.8594 L32.7656 51.8594 L32.7656 41.0625 L22.5156 41.0625 L22.5156 0 L8.7969 0 L8.7969 41.0625 L1.1719 41.0625 L1.1719 51.8594 Z"
        /><glyph unicode="e" horiz-adv-x="55.615234" d="M37.2031 16.5 L50.875 14.2031 Q48.25 6.6875 42.5547 2.7578 Q36.8594 -1.1719 28.3281 -1.1719 Q14.7969 -1.1719 8.2969 7.6719 Q3.1719 14.75 3.1719 25.5312 Q3.1719 38.4219 9.9141 45.7266 Q16.6562 53.0312 26.9531 53.0312 Q38.5312 53.0312 45.2188 45.3906 Q51.9062 37.75 51.6094 21.9688 L17.2344 21.9688 Q17.3906 15.875 20.5625 12.4766 Q23.7344 9.0781 28.4688 9.0781 Q31.6875 9.0781 33.8828 10.8359 Q36.0781 12.5938 37.2031 16.5 ZM37.9844 30.375 Q37.8438 36.3281 34.9141 39.4297 Q31.9844 42.5312 27.7812 42.5312 Q23.2969 42.5312 20.3594 39.2656 Q17.4375 35.9844 17.4844 30.375 L37.9844 30.375 Z"
        /><glyph unicode="v" horiz-adv-x="55.615234" d="M21.4375 0 L0.5312 51.8594 L14.9375 51.8594 L24.7031 25.3906 L27.5469 16.5469 Q28.6562 19.9219 28.9531 21 Q29.6406 23.1875 30.4219 25.3906 L40.2812 51.8594 L54.3906 51.8594 L33.7969 0 L21.4375 0 Z"
        /><glyph unicode="r" horiz-adv-x="38.916016" d="M20.3125 0 L6.5938 0 L6.5938 51.8594 L19.3438 51.8594 L19.3438 44.4844 Q22.6094 49.7031 25.2188 51.3672 Q27.8281 53.0312 31.1562 53.0312 Q35.8438 53.0312 40.1875 50.4375 L35.9375 38.4844 Q32.4688 40.7188 29.5 40.7188 Q26.6094 40.7188 24.6094 39.1328 Q22.6094 37.5469 21.4609 33.3984 Q20.3125 29.25 20.3125 16.0156 L20.3125 0 Z"
        /><glyph unicode="u" horiz-adv-x="61.083984" d="M41.3125 0 L41.3125 7.7656 Q38.4844 3.6094 33.8672 1.2188 Q29.25 -1.1719 24.125 -1.1719 Q18.8906 -1.1719 14.7422 1.125 Q10.5938 3.4219 8.7422 7.5703 Q6.8906 11.7188 6.8906 19.0469 L6.8906 51.8594 L20.6094 51.8594 L20.6094 28.0312 Q20.6094 17.0938 21.3672 14.625 Q22.125 12.1562 24.125 10.7188 Q26.125 9.2812 29.2031 9.2812 Q32.7188 9.2812 35.5 11.2109 Q38.2812 13.1406 39.3047 15.9922 Q40.3281 18.8438 40.3281 29.9844 L40.3281 51.8594 L54.0469 51.8594 L54.0469 0 L41.3125 0 Z"
        /><glyph unicode="c" horiz-adv-x="55.615234" d="M52.3906 36.5312 L38.875 34.0781 Q38.1875 38.1406 35.7656 40.1875 Q33.3438 42.2344 29.5 42.2344 Q24.3594 42.2344 21.3125 38.6953 Q18.2656 35.1562 18.2656 26.8594 Q18.2656 17.625 21.3672 13.8203 Q24.4688 10.0156 29.6875 10.0156 Q33.5938 10.0156 36.0859 12.2344 Q38.5781 14.4531 39.5938 19.875 L53.0781 17.5781 Q50.9844 8.2969 45.0234 3.5625 Q39.0625 -1.1719 29.0469 -1.1719 Q17.6719 -1.1719 10.9141 6.0078 Q4.1562 13.1875 4.1562 25.875 Q4.1562 38.7188 10.9375 45.875 Q17.7188 53.0312 29.2969 53.0312 Q38.7656 53.0312 44.3594 48.9531 Q49.9531 44.875 52.3906 36.5312 Z"
        /><glyph unicode=" " horiz-adv-x="27.783203" d=""
        /><glyph unicode="a" horiz-adv-x="55.615234" d="M17.4375 36.0312 L4.9844 38.2812 Q7.0781 45.7969 12.2031 49.4141 Q17.3281 53.0312 27.4375 53.0312 Q36.625 53.0312 41.1172 50.8594 Q45.6094 48.6875 47.4375 45.3438 Q49.2656 42 49.2656 33.0625 L49.125 17.0469 Q49.125 10.2031 49.7812 6.9609 Q50.4375 3.7188 52.25 0 L38.6719 0 Q38.1406 1.375 37.3594 4.0469 Q37.0156 5.2812 36.8594 5.6719 Q33.3438 2.25 29.3438 0.5391 Q25.3438 -1.1719 20.7969 -1.1719 Q12.7969 -1.1719 8.1797 3.1719 Q3.5625 7.5156 3.5625 14.1562 Q3.5625 18.5625 5.6641 22 Q7.7656 25.4375 11.5469 27.2734 Q15.3281 29.1094 22.4688 30.4688 Q32.0781 32.2812 35.7969 33.8438 L35.7969 35.2031 Q35.7969 39.1562 33.8438 40.8438 Q31.8906 42.5312 26.4688 42.5312 Q22.7969 42.5312 20.75 41.0938 Q18.7031 39.6562 17.4375 36.0312 ZM35.7969 24.9062 Q33.1562 24.0312 27.4453 22.8047 Q21.7344 21.5781 19.9688 20.4062 Q17.2812 18.5 17.2812 15.5781 Q17.2812 12.7031 19.4297 10.6016 Q21.5781 8.5 24.9062 8.5 Q28.6094 8.5 31.9844 10.9375 Q34.4688 12.7969 35.25 15.4844 Q35.7969 17.2344 35.7969 22.1719 L35.7969 24.9062 Z"
        /><glyph unicode="i" horiz-adv-x="27.783203" d="M7.1719 58.8906 L7.1719 71.5781 L20.9062 71.5781 L20.9062 58.8906 L7.1719 58.8906 ZM7.1719 0 L7.1719 51.8594 L20.9062 51.8594 L20.9062 0 L7.1719 0 Z"
        /><glyph unicode="m" horiz-adv-x="88.916016" d="M6.1562 51.8594 L18.7969 51.8594 L18.7969 44.7812 Q25.5938 53.0312 34.9688 53.0312 Q39.9375 53.0312 43.6016 50.9766 Q47.2656 48.9219 49.6094 44.7812 Q53.0312 48.9219 56.9844 50.9766 Q60.9375 53.0312 65.4375 53.0312 Q71.1406 53.0312 75.0938 50.7109 Q79.0469 48.3906 81 43.8906 Q82.4219 40.5781 82.4219 33.1562 L82.4219 0 L68.7031 0 L68.7031 29.6406 Q68.7031 37.3594 67.2812 39.5938 Q65.375 42.5312 61.4219 42.5312 Q58.5469 42.5312 56.0078 40.7734 Q53.4688 39.0156 52.3438 35.625 Q51.2188 32.2344 51.2188 24.9062 L51.2188 0 L37.5 0 L37.5 28.4219 Q37.5 35.9844 36.7656 38.1797 Q36.0312 40.375 34.4922 41.4531 Q32.9531 42.5312 30.3281 42.5312 Q27.1562 42.5312 24.6172 40.8203 Q22.0781 39.1094 20.9766 35.8906 Q19.875 32.6719 19.875 25.2031 L19.875 0 L6.1562 0 L6.1562 51.8594 Z"
        /><glyph unicode="n" horiz-adv-x="61.083984" d="M54.3438 0 L40.625 0 L40.625 26.4688 Q40.625 34.8594 39.75 37.3281 Q38.875 39.7969 36.8906 41.1641 Q34.9062 42.5312 32.125 42.5312 Q28.5625 42.5312 25.7344 40.5781 Q22.9062 38.625 21.8516 35.3984 Q20.7969 32.1719 20.7969 23.4844 L20.7969 0 L7.0781 0 L7.0781 51.8594 L19.8281 51.8594 L19.8281 44.2344 Q26.6094 53.0312 36.9219 53.0312 Q41.4531 53.0312 45.2109 51.3906 Q48.9688 49.75 50.8984 47.2109 Q52.8281 44.6719 53.5859 41.4531 Q54.3438 38.2344 54.3438 32.2344 L54.3438 0 Z"
        /><glyph unicode="y" horiz-adv-x="55.615234" d="M0.6875 51.8594 L15.2812 51.8594 L27.6875 15.0469 L39.7969 51.8594 L54 51.8594 L35.6875 1.9531 L32.4219 -7.0781 Q30.6094 -11.625 28.9766 -14.0156 Q27.3438 -16.4062 25.2188 -17.8984 Q23.0938 -19.3906 19.9922 -20.2188 Q16.8906 -21.0469 12.9844 -21.0469 Q9.0312 -21.0469 5.2188 -20.2188 L4 -9.4688 Q7.2344 -10.1094 9.8125 -10.1094 Q14.5938 -10.1094 16.8906 -7.3047 Q19.1875 -4.5 20.4062 -0.1406 L0.6875 51.8594 Z"
        /><glyph unicode="l" horiz-adv-x="27.783203" d="M7.1719 0 L7.1719 71.5781 L20.9062 71.5781 L20.9062 0 L7.1719 0 Z"
        /><glyph unicode="o" horiz-adv-x="61.083984" d="M4 26.6562 Q4 33.5 7.375 39.8984 Q10.75 46.2969 16.9219 49.6641 Q23.0938 53.0312 30.7188 53.0312 Q42.4844 53.0312 50 45.3906 Q57.5156 37.75 57.5156 26.0781 Q57.5156 14.3125 49.9219 6.5703 Q42.3281 -1.1719 30.8125 -1.1719 Q23.6875 -1.1719 17.2188 2.0547 Q10.75 5.2812 7.375 11.5 Q4 17.7188 4 26.6562 ZM18.0625 25.9219 Q18.0625 18.2188 21.7266 14.1172 Q25.3906 10.0156 30.7656 10.0156 Q36.1406 10.0156 39.7734 14.1172 Q43.4062 18.2188 43.4062 26.0312 Q43.4062 33.6406 39.7734 37.7422 Q36.1406 41.8438 30.7656 41.8438 Q25.3906 41.8438 21.7266 37.7422 Q18.0625 33.6406 18.0625 25.9219 Z"
        /><glyph unicode="P" horiz-adv-x="66.69922" d="M7.2812 0 L7.2812 71.5781 L30.4688 71.5781 Q43.6562 71.5781 47.6562 70.5156 Q53.8125 68.8906 57.9609 63.5 Q62.1094 58.1094 62.1094 49.5625 Q62.1094 42.9688 59.7188 38.4766 Q57.3281 33.9844 53.6406 31.4219 Q49.9531 28.8594 46.1406 28.0312 Q40.9688 27 31.1562 27 L21.7344 27 L21.7344 0 L7.2812 0 ZM21.7344 59.4688 L21.7344 39.1562 L29.6406 39.1562 Q38.1875 39.1562 41.0703 40.2812 Q43.9531 41.4062 45.5859 43.7969 Q47.2188 46.1875 47.2188 49.3594 Q47.2188 53.2656 44.9219 55.8047 Q42.625 58.3438 39.1094 58.9844 Q36.5312 59.4688 28.7188 59.4688 L21.7344 59.4688 Z"
      /></font
    ></defs
    ><g style="fill:white; stroke:white;"
    ><rect x="0" y="0" width="1920" style="clip-path:url(#clipPath1); stroke:none;" height="964"
    /></g
    ><g style="fill:white; text-rendering:optimizeSpeed; color-rendering:optimizeSpeed; image-rendering:optimizeSpeed; shape-rendering:crispEdges; color-interpolation:sRGB; stroke:white;"
    ><rect x="0" width="1920" height="964" y="0" style="stroke:none;"
      /><path style="stroke:none;" d="M250 858 L1738 858 L1738 72 L250 72 Z"
    /></g
    ><g style="fill:rgb(38,38,38); text-rendering:geometricPrecision; color-rendering:optimizeQuality; image-rendering:optimizeQuality; stroke-linejoin:round; color-interpolation:linearRGB; stroke:rgb(38,38,38); stroke-width:0.6667;"
    ><line y2="858" style="fill:none;" x1="250" x2="1738" y1="858"
      /><line y2="72" style="fill:none;" x1="250" x2="1738" y1="72"
      /><line y2="843.1201" style="fill:none;" x1="250" x2="250" y1="858"
      /><line y2="843.1201" style="fill:none;" x1="398.8" x2="398.8" y1="858"
      /><line y2="843.1201" style="fill:none;" x1="547.6" x2="547.6" y1="858"
      /><line y2="843.1201" style="fill:none;" x1="696.4" x2="696.4" y1="858"
      /><line y2="843.1201" style="fill:none;" x1="845.2" x2="845.2" y1="858"
      /><line y2="843.1201" style="fill:none;" x1="994" x2="994" y1="858"
      /><line y2="843.1201" style="fill:none;" x1="1142.8" x2="1142.8" y1="858"
      /><line y2="843.1201" style="fill:none;" x1="1291.6" x2="1291.6" y1="858"
      /><line y2="843.1201" style="fill:none;" x1="1440.4" x2="1440.4" y1="858"
      /><line y2="843.1201" style="fill:none;" x1="1589.2" x2="1589.2" y1="858"
      /><line y2="843.1201" style="fill:none;" x1="1738" x2="1738" y1="858"
      /><line y2="86.88" style="fill:none;" x1="250" x2="250" y1="72"
      /><line y2="86.88" style="fill:none;" x1="398.8" x2="398.8" y1="72"
      /><line y2="86.88" style="fill:none;" x1="547.6" x2="547.6" y1="72"
      /><line y2="86.88" style="fill:none;" x1="696.4" x2="696.4" y1="72"
      /><line y2="86.88" style="fill:none;" x1="845.2" x2="845.2" y1="72"
      /><line y2="86.88" style="fill:none;" x1="994" x2="994" y1="72"
      /><line y2="86.88" style="fill:none;" x1="1142.8" x2="1142.8" y1="72"
      /><line y2="86.88" style="fill:none;" x1="1291.6" x2="1291.6" y1="72"
      /><line y2="86.88" style="fill:none;" x1="1440.4" x2="1440.4" y1="72"
      /><line y2="86.88" style="fill:none;" x1="1589.2" x2="1589.2" y1="72"
      /><line y2="86.88" style="fill:none;" x1="1738" x2="1738" y1="72"
    /></g
    ><g transform="translate(250,863.3333)" style="font-size:13px; fill:rgb(38,38,38); text-rendering:geometricPrecision; color-rendering:optimizeQuality; image-rendering:optimizeQuality; color-interpolation:linearRGB; stroke:rgb(38,38,38);"
    ><text x="-4" xml:space="preserve" y="14" style="stroke:none;"
      >0</text
    ></g
    ><g transform="translate(398.8,863.3333)" style="font-size:13px; fill:rgb(38,38,38); text-rendering:geometricPrecision; color-rendering:optimizeQuality; image-rendering:optimizeQuality; color-interpolation:linearRGB; stroke:rgb(38,38,38);"
    ><text x="-13" xml:space="preserve" y="14" style="stroke:none;"
      >0.05</text
    ></g
    ><g transform="translate(547.6,863.3333)" style="font-size:13px; fill:rgb(38,38,38); text-rendering:geometricPrecision; color-rendering:optimizeQuality; image-rendering:optimizeQuality; color-interpolation:linearRGB; stroke:rgb(38,38,38);"
    ><text x="-9.5" xml:space="preserve" y="14" style="stroke:none;"
      >0.1</text
    ></g
    ><g transform="translate(696.4,863.3333)" style="font-size:13px; fill:rgb(38,38,38); text-rendering:geometricPrecision; color-rendering:optimizeQuality; image-rendering:optimizeQuality; color-interpolation:linearRGB; stroke:rgb(38,38,38);"
    ><text x="-13" xml:space="preserve" y="14" style="stroke:none;"
      >0.15</text
    ></g
    ><g transform="translate(845.2,863.3333)" style="font-size:13px; fill:rgb(38,38,38); text-rendering:geometricPrecision; color-rendering:optimizeQuality; image-rendering:optimizeQuality; color-interpolation:linearRGB; stroke:rgb(38,38,38);"
    ><text x="-9.5" xml:space="preserve" y="14" style="stroke:none;"
      >0.2</text
    ></g
    ><g transform="translate(994,863.3333)" style="font-size:13px; fill:rgb(38,38,38); text-rendering:geometricPrecision; color-rendering:optimizeQuality; image-rendering:optimizeQuality; color-interpolation:linearRGB; stroke:rgb(38,38,38);"
    ><text x="-13" xml:space="preserve" y="14" style="stroke:none;"
      >0.25</text
    ></g
    ><g transform="translate(1142.8,863.3333)" style="font-size:13px; fill:rgb(38,38,38); text-rendering:geometricPrecision; color-rendering:optimizeQuality; image-rendering:optimizeQuality; color-interpolation:linearRGB; stroke:rgb(38,38,38);"
    ><text x="-9.5" xml:space="preserve" y="14" style="stroke:none;"
      >0.3</text
    ></g
    ><g transform="translate(1291.6,863.3333)" style="font-size:13px; fill:rgb(38,38,38); text-rendering:geometricPrecision; color-rendering:optimizeQuality; image-rendering:optimizeQuality; color-interpolation:linearRGB; stroke:rgb(38,38,38);"
    ><text x="-13" xml:space="preserve" y="14" style="stroke:none;"
      >0.35</text
    ></g
    ><g transform="translate(1440.4,863.3333)" style="font-size:13px; fill:rgb(38,38,38); text-rendering:geometricPrecision; color-rendering:optimizeQuality; image-rendering:optimizeQuality; color-interpolation:linearRGB; stroke:rgb(38,38,38);"
    ><text x="-9.5" xml:space="preserve" y="14" style="stroke:none;"
      >0.4</text
    ></g
    ><g transform="translate(1589.2,863.3333)" style="font-size:13px; fill:rgb(38,38,38); text-rendering:geometricPrecision; color-rendering:optimizeQuality; image-rendering:optimizeQuality; color-interpolation:linearRGB; stroke:rgb(38,38,38);"
    ><text x="-13" xml:space="preserve" y="14" style="stroke:none;"
      >0.45</text
    ></g
    ><g transform="translate(1738,863.3333)" style="font-size:13px; fill:rgb(38,38,38); text-rendering:geometricPrecision; color-rendering:optimizeQuality; image-rendering:optimizeQuality; color-interpolation:linearRGB; stroke:rgb(38,38,38);"
    ><text x="-9.5" xml:space="preserve" y="14" style="stroke:none;"
      >0.5</text
    ></g
    ><g transform="translate(994.0007,881.6667)" style="font-size:40px; fill:rgb(38,38,38); text-rendering:geometricPrecision; color-rendering:optimizeQuality; image-rendering:optimizeQuality; color-interpolation:linearRGB; stroke:rgb(38,38,38);"
    ><text x="-140.5" xml:space="preserve" y="41" style="stroke:none;"
      >Dataset median</text
    ></g
    ><g style="fill:rgb(38,38,38); text-rendering:geometricPrecision; color-rendering:optimizeQuality; image-rendering:optimizeQuality; stroke-linejoin:round; color-interpolation:linearRGB; stroke:rgb(38,38,38); stroke-width:0.6667;"
    ><line y2="72" style="fill:none;" x1="250" x2="250" y1="858"
      /><line y2="72" style="fill:none;" x1="1738" x2="1738" y1="858"
      /><line y2="858" style="fill:none;" x1="250" x2="264.88" y1="858"
      /><line y2="779.4" style="fill:none;" x1="250" x2="264.88" y1="779.4"
      /><line y2="700.8" style="fill:none;" x1="250" x2="264.88" y1="700.8"
      /><line y2="622.2" style="fill:none;" x1="250" x2="264.88" y1="622.2"
      /><line y2="543.6" style="fill:none;" x1="250" x2="264.88" y1="543.6"
      /><line y2="465" style="fill:none;" x1="250" x2="264.88" y1="465"
      /><line y2="386.4" style="fill:none;" x1="250" x2="264.88" y1="386.4"
      /><line y2="307.8" style="fill:none;" x1="250" x2="264.88" y1="307.8"
      /><line y2="229.2" style="fill:none;" x1="250" x2="264.88" y1="229.2"
      /><line y2="150.6" style="fill:none;" x1="250" x2="264.88" y1="150.6"
      /><line y2="72" style="fill:none;" x1="250" x2="264.88" y1="72"
      /><line y2="858" style="fill:none;" x1="1738" x2="1723.12" y1="858"
      /><line y2="779.4" style="fill:none;" x1="1738" x2="1723.12" y1="779.4"
      /><line y2="700.8" style="fill:none;" x1="1738" x2="1723.12" y1="700.8"
      /><line y2="622.2" style="fill:none;" x1="1738" x2="1723.12" y1="622.2"
      /><line y2="543.6" style="fill:none;" x1="1738" x2="1723.12" y1="543.6"
      /><line y2="465" style="fill:none;" x1="1738" x2="1723.12" y1="465"
      /><line y2="386.4" style="fill:none;" x1="1738" x2="1723.12" y1="386.4"
      /><line y2="307.8" style="fill:none;" x1="1738" x2="1723.12" y1="307.8"
      /><line y2="229.2" style="fill:none;" x1="1738" x2="1723.12" y1="229.2"
      /><line y2="150.6" style="fill:none;" x1="1738" x2="1723.12" y1="150.6"
      /><line y2="72" style="fill:none;" x1="1738" x2="1723.12" y1="72"
    /></g
    ><g transform="translate(244.6667,858)" style="font-size:13px; fill:rgb(38,38,38); text-rendering:geometricPrecision; color-rendering:optimizeQuality; image-rendering:optimizeQuality; color-interpolation:linearRGB; stroke:rgb(38,38,38);"
    ><text x="-19" xml:space="preserve" y="5.5" style="stroke:none;"
      >1.8</text
    ></g
    ><g transform="translate(244.6667,779.4)" style="font-size:13px; fill:rgb(38,38,38); text-rendering:geometricPrecision; color-rendering:optimizeQuality; image-rendering:optimizeQuality; color-interpolation:linearRGB; stroke:rgb(38,38,38);"
    ><text x="-8" xml:space="preserve" y="5.5" style="stroke:none;"
      >2</text
    ></g
    ><g transform="translate(244.6667,700.8)" style="font-size:13px; fill:rgb(38,38,38); text-rendering:geometricPrecision; color-rendering:optimizeQuality; image-rendering:optimizeQuality; color-interpolation:linearRGB; stroke:rgb(38,38,38);"
    ><text x="-19" xml:space="preserve" y="5.5" style="stroke:none;"
      >2.2</text
    ></g
    ><g transform="translate(244.6667,622.2)" style="font-size:13px; fill:rgb(38,38,38); text-rendering:geometricPrecision; color-rendering:optimizeQuality; image-rendering:optimizeQuality; color-interpolation:linearRGB; stroke:rgb(38,38,38);"
    ><text x="-19" xml:space="preserve" y="5.5" style="stroke:none;"
      >2.4</text
    ></g
    ><g transform="translate(244.6667,543.6)" style="font-size:13px; fill:rgb(38,38,38); text-rendering:geometricPrecision; color-rendering:optimizeQuality; image-rendering:optimizeQuality; color-interpolation:linearRGB; stroke:rgb(38,38,38);"
    ><text x="-19" xml:space="preserve" y="5.5" style="stroke:none;"
      >2.6</text
    ></g
    ><g transform="translate(244.6667,465)" style="font-size:13px; fill:rgb(38,38,38); text-rendering:geometricPrecision; color-rendering:optimizeQuality; image-rendering:optimizeQuality; color-interpolation:linearRGB; stroke:rgb(38,38,38);"
    ><text x="-19" xml:space="preserve" y="5.5" style="stroke:none;"
      >2.8</text
    ></g
    ><g transform="translate(244.6667,386.4)" style="font-size:13px; fill:rgb(38,38,38); text-rendering:geometricPrecision; color-rendering:optimizeQuality; image-rendering:optimizeQuality; color-interpolation:linearRGB; stroke:rgb(38,38,38);"
    ><text x="-8" xml:space="preserve" y="5.5" style="stroke:none;"
      >3</text
    ></g
    ><g transform="translate(244.6667,307.8)" style="font-size:13px; fill:rgb(38,38,38); text-rendering:geometricPrecision; color-rendering:optimizeQuality; image-rendering:optimizeQuality; color-interpolation:linearRGB; stroke:rgb(38,38,38);"
    ><text x="-19" xml:space="preserve" y="5.5" style="stroke:none;"
      >3.2</text
    ></g
    ><g transform="translate(244.6667,229.2)" style="font-size:13px; fill:rgb(38,38,38); text-rendering:geometricPrecision; color-rendering:optimizeQuality; image-rendering:optimizeQuality; color-interpolation:linearRGB; stroke:rgb(38,38,38);"
    ><text x="-19" xml:space="preserve" y="5.5" style="stroke:none;"
      >3.4</text
    ></g
    ><g transform="translate(244.6667,150.6)" style="font-size:13px; fill:rgb(38,38,38); text-rendering:geometricPrecision; color-rendering:optimizeQuality; image-rendering:optimizeQuality; color-interpolation:linearRGB; stroke:rgb(38,38,38);"
    ><text x="-19" xml:space="preserve" y="5.5" style="stroke:none;"
      >3.6</text
    ></g
    ><g transform="translate(244.6667,72)" style="font-size:13px; fill:rgb(38,38,38); text-rendering:geometricPrecision; color-rendering:optimizeQuality; image-rendering:optimizeQuality; color-interpolation:linearRGB; stroke:rgb(38,38,38);"
    ><text x="-19" xml:space="preserve" y="5.5" style="stroke:none;"
      >3.8</text
    ></g
    ><g transform="translate(221.6667,464.9996) rotate(-90)" style="font-size:40px; fill:rgb(38,38,38); text-rendering:geometricPrecision; color-rendering:optimizeQuality; image-rendering:optimizeQuality; color-interpolation:linearRGB; stroke:rgb(38,38,38);"
    ><text x="-145" xml:space="preserve" y="-9" style="stroke:none;"
      >Threshold factor</text
    ></g
    ><g transform="translate(994.001,63.7501)" style="font-size:44px; text-rendering:geometricPrecision; color-rendering:optimizeQuality; image-rendering:optimizeQuality; color-interpolation:linearRGB; font-weight:bold;"
    ><text x="-661.5" xml:space="preserve" y="-10" style="stroke:none;"
      >Polynomial curve fitting on median-threshold factor value pairs</text
    ></g
    ><g style="stroke-linecap:butt; fill:rgb(0,114,189); text-rendering:geometricPrecision; color-rendering:optimizeQuality; image-rendering:optimizeQuality; stroke-linejoin:round; color-interpolation:linearRGB; stroke:rgb(0,114,189);"
    ><path d="M419.5 138.5 L418.7361 136.1489 L416.7361 134.6958 L414.2639 134.6958 L412.2639 136.1489 L411.5 138.5 L412.2639 140.8511 L414.2639 142.3042 L416.7361 142.3042 L418.7361 140.8511 Z" style="fill:none; fill-rule:evenodd;"
      /><path d="M575.5 201.5 L574.7361 199.1489 L572.7361 197.6958 L570.2639 197.6958 L568.2639 199.1489 L567.5 201.5 L568.2639 203.8511 L570.2639 205.3042 L572.7361 205.3042 L574.7361 203.8511 Z" style="fill:none; fill-rule:evenodd;"
      /><path d="M729.5 343.5 L728.7361 341.1489 L726.7361 339.6958 L724.2639 339.6958 L722.2639 341.1489 L721.5 343.5 L722.2639 345.8511 L724.2639 347.3042 L726.7361 347.3042 L728.7361 345.8511 Z" style="fill:none; fill-rule:evenodd;"
      /><path d="M882.5 441.5 L881.7361 439.1489 L879.7361 437.6958 L877.2639 437.6958 L875.2639 439.1489 L874.5 441.5 L875.2639 443.8511 L877.2639 445.3042 L879.7361 445.3042 L881.7361 443.8511 Z" style="fill:none; fill-rule:evenodd;"
      /><path d="M1032.5 496.5 L1031.7361 494.1489 L1029.7361 492.6958 L1027.2639 492.6958 L1025.2639 494.1489 L1024.5 496.5 L1025.2639 498.8511 L1027.2639 500.3042 L1029.7361 500.3042 L1031.7361 498.8511 Z" style="fill:none; fill-rule:evenodd;"
      /><path d="M1188.5 567.5 L1187.7361 565.1489 L1185.7361 563.6958 L1183.2639 563.6958 L1181.2639 565.1489 L1180.5 567.5 L1181.2639 569.8511 L1183.2639 571.3042 L1185.7361 571.3042 L1187.7361 569.8511 Z" style="fill:none; fill-rule:evenodd;"
      /><path d="M1337.5 594.5 L1336.7361 592.1489 L1334.7361 590.6958 L1332.2639 590.6958 L1330.2639 592.1489 L1329.5 594.5 L1330.2639 596.8511 L1332.2639 598.3042 L1334.7361 598.3042 L1336.7361 596.8511 Z" style="fill:none; fill-rule:evenodd;"
      /><path d="M1482.5 606.5 L1481.7361 604.1489 L1479.7361 602.6958 L1477.2639 602.6958 L1475.2639 604.1489 L1474.5 606.5 L1475.2639 608.8511 L1477.2639 610.3042 L1479.7361 610.3042 L1481.7361 608.8511 Z" style="fill:none; fill-rule:evenodd;"
      /><path d="M250 95.5678 L280.3673 109.7642 L310.7347 123.9606 L341.1021 138.157 L371.4694 152.3534 L401.8367 166.5498 L432.2041 180.7462 L462.5714 194.9426 L492.9388 209.139 L523.3062 223.3354 L553.6735 237.5317 L584.0408 251.7282 L614.4081 265.9245 L644.7755 280.121 L675.1429 294.3173 L705.5102 308.5138 L735.8776 322.7101 L766.2449 336.9066 L796.6122 351.1029 L826.9796 365.2994 L857.347 379.4957 L887.7143 393.6921 L918.0816 407.8885 L948.449 422.0849 L978.8163 436.2813 L1009.1837 450.4777 L1039.551 464.6741 L1069.9183 478.8705 L1100.2858 493.0669 L1130.6531 507.2633 L1161.0204 521.4597 L1191.3877 535.6561 L1221.7551 549.8524 L1252.1224 564.0489 L1282.4899 578.2452 L1312.8572 592.4417 L1343.2245 606.6381 L1373.5918 620.8345 L1403.9591 635.0308 L1434.3265 649.2273 L1464.694 663.4236 L1495.0613 677.62 L1525.4286 691.8165 L1555.7959 706.0128 L1586.1632 720.2092 L1616.5306 734.4056 L1646.8979 748.6021 L1677.2654 762.7984 L1707.6327 776.9949 L1738 791.1912" style="fill:none; stroke-width:0.6667; fill-rule:evenodd; stroke:rgb(217,83,25);"
    /></g
  ></g
></svg
>
