<?xml version="1.0" encoding="utf-8"?>
<!-- Generator: Adobe Illustrator 19.0.0, SVG Export Plug-In . SVG Version: 6.00 Build 0)  -->
<svg version="1.1" id="Layer_1" xmlns="http://www.w3.org/2000/svg" xmlns:xlink="http://www.w3.org/1999/xlink" x="0px" y="0px"
	 width="1562.8901367px" height="919.6533203px" viewBox="1078.340332 -405.9980469 1562.8901367 919.6533203"
	 style="enable-background:new 1078.340332 -405.9980469 1562.8901367 919.6533203;" xml:space="preserve">
<style type="text/css">
	.st0{fill:#FFFFFF;}
	.st1{fill:none;stroke:#262626;stroke-width:0.6667;stroke-linecap:square;stroke-linejoin:round;stroke-miterlimit:10;}
	.st2{fill:#262626;}
	.st3{font-family:'ArialMT';}
	.st4{font-size:13px;}
	.st5{font-size:40px;}
	.st6{font-size:11px;}
	.st7{font-family:'Arial-BoldMT';}
	.st8{font-size:44px;}
	.st9{fill:none;stroke:#0072BD;stroke-width:0.6667;stroke-linejoin:round;stroke-miterlimit:10;}
	.st10{fill:none;stroke:#D95319;stroke-width:0.6667;stroke-linejoin:round;stroke-miterlimit:10;}
</style>
<g>
	<g>
		<path class="st0" d="M1150,436h1488v-786H1150V436z"/>
	</g>
	<g>
		<line class="st1" x1="1150" y1="436" x2="2638" y2="436"/>
		<line class="st1" x1="1150" y1="-350" x2="2638" y2="-350"/>
		<line class="st1" x1="1150" y1="436" x2="1150" y2="421.1199951"/>
		<line class="st1" x1="1398" y1="436" x2="1398" y2="421.1199951"/>
		<line class="st1" x1="1646" y1="436" x2="1646" y2="421.1199951"/>
		<line class="st1" x1="1894" y1="436" x2="1894" y2="421.1199951"/>
		<line class="st1" x1="2142" y1="436" x2="2142" y2="421.1199951"/>
		<line class="st1" x1="2390" y1="436" x2="2390" y2="421.1199951"/>
		<line class="st1" x1="2638" y1="436" x2="2638" y2="421.1199951"/>
		<line class="st1" x1="1150" y1="-350" x2="1150" y2="-335.1199951"/>
		<line class="st1" x1="1398" y1="-350" x2="1398" y2="-335.1199951"/>
		<line class="st1" x1="1646" y1="-350" x2="1646" y2="-335.1199951"/>
		<line class="st1" x1="1894" y1="-350" x2="1894" y2="-335.1199951"/>
		<line class="st1" x1="2142" y1="-350" x2="2142" y2="-335.1199951"/>
		<line class="st1" x1="2390" y1="-350" x2="2390" y2="-335.1199951"/>
		<line class="st1" x1="2638" y1="-350" x2="2638" y2="-335.1199951"/>
	</g>
	<g transform="translate(250,863.3333)">
		<text transform="matrix(1 0 0 1 896 -408)" class="st2 st3 st4">1</text>
	</g>
	<g transform="translate(498,863.3333)">
		<text transform="matrix(1 0 0 1 896 -408)" class="st2 st3 st4">2</text>
	</g>
	<g transform="translate(746,863.3333)">
		<text transform="matrix(1 0 0 1 896 -408)" class="st2 st3 st4">3</text>
	</g>
	<g transform="translate(994,863.3333)">
		<text transform="matrix(1 0 0 1 896 -408)" class="st2 st3 st4">4</text>
	</g>
	<g transform="translate(1242,863.3333)">
		<text transform="matrix(1 0 0 1 896 -408)" class="st2 st3 st4">5</text>
	</g>
	<g transform="translate(1490,863.3333)">
		<text transform="matrix(1 0 0 1 896 -408)" class="st2 st3 st4">6</text>
	</g>
	<g transform="translate(1738,863.3333)">
		<text transform="matrix(1 0 0 1 896 -408)" class="st2 st3 st4">7</text>
	</g>
	<g transform="translate(994.0007,881.6667)">
		<text transform="matrix(1 0 0 1 726.5 -381)" class="st2 st3 st5">Threshold factor (k)</text>
	</g>
	<g>
		<line class="st1" x1="1150" y1="436" x2="1150" y2="-350"/>
		<line class="st1" x1="2638" y1="436" x2="2638" y2="-350"/>
		<line class="st1" x1="1150" y1="436" x2="1164.8800049" y2="436"/>
		<line class="st1" x1="1150" y1="305" x2="1164.8800049" y2="305"/>
		<line class="st1" x1="1150" y1="174" x2="1164.8800049" y2="174"/>
		<line class="st1" x1="1150" y1="43" x2="1164.8800049" y2="43"/>
		<line class="st1" x1="1150" y1="-88" x2="1164.8800049" y2="-88"/>
		<line class="st1" x1="1150" y1="-219" x2="1164.8800049" y2="-219"/>
		<line class="st1" x1="1150" y1="-350" x2="1164.8800049" y2="-350"/>
		<line class="st1" x1="2638" y1="436" x2="2623.1201172" y2="436"/>
		<line class="st1" x1="2638" y1="305" x2="2623.1201172" y2="305"/>
		<line class="st1" x1="2638" y1="174" x2="2623.1201172" y2="174"/>
		<line class="st1" x1="2638" y1="43" x2="2623.1201172" y2="43"/>
		<line class="st1" x1="2638" y1="-88" x2="2623.1201172" y2="-88"/>
		<line class="st1" x1="2638" y1="-219" x2="2623.1201172" y2="-219"/>
		<line class="st1" x1="2638" y1="-350" x2="2623.1201172" y2="-350"/>
	</g>
	<g transform="translate(244.6667,858)">
		<text transform="matrix(1 0 0 1 892 -416.5)" class="st2 st3 st4">0</text>
	</g>
	<g transform="translate(244.6667,727)">
		<text transform="matrix(1 0 0 1 881 -416.5)" class="st2 st3 st4">0.5</text>
	</g>
	<g transform="translate(244.6667,596)">
		<text transform="matrix(1 0 0 1 892 -416.5)" class="st2 st3 st4">1</text>
	</g>
	<g transform="translate(244.6667,465)">
		<text transform="matrix(1 0 0 1 881 -416.5)" class="st2 st3 st4">1.5</text>
	</g>
	<g transform="translate(244.6667,334)">
		<text transform="matrix(1 0 0 1 892 -416.5)" class="st2 st3 st4">2</text>
	</g>
	<g transform="translate(244.6667,203)">
		<text transform="matrix(1 0 0 1 881 -416.5)" class="st2 st3 st4">2.5</text>
	</g>
	<g transform="translate(244.6667,72)">
		<text transform="matrix(1 0 0 1 892 -416.5)" class="st2 st3 st4">3</text>
	</g>
	<g transform="translate(221.6667,464.9996) rotate(-90)">
		<text transform="matrix(1 0 0 1 265.9996033 891)" class="st2 st3 st5">Number of spikes</text>
	</g>
	<g transform="translate(250,69)">
		<text transform="matrix(1 0 0 1 900 -422)" class="st2 st3 st4">#</text>
	</g>
	<g transform="translate(261,69)">
		<text transform="matrix(1 0 0 1 900 -422)" class="st2 st3 st4">10</text>
	</g>
	<g transform="translate(276,63)">
		<text transform="matrix(1 0 0 1 900 -422)" class="st2 st3 st6">4</text>
	</g>
	<g transform="translate(994.001,63.75)">
		<text transform="matrix(1 0 0 1 316.5 -432)" class="st7 st8">Number of spikes for different values of k for dataset #3</text>
	</g>
	<g>
		<path class="st9" d="M1150-287.4082031l2.4799805,7.4146118l2.4799805,6.7071838l2.4799805,5.5544128l2.4801025,6.5499878
			l2.4799805,6.6286011l2.4799805,7.2050018l2.4799805,8.9866028l2.4799805,6.8905945l2.4801025,6.6809998l2.4799805,7.3360138
			l2.4799805,7.4407959l2.4799805,6.2355957l2.4799805,7.1002045l2.4799805,6.4713898l2.4799805,7.1788025l2.4799805,5.9212036
			l2.4801025,7.1002045l2.4799805,7.3097992l2.4799805,6.7595825l2.4799805,7.047821l2.4799805,7.4145813l2.4801025,6.2880249
			l2.4799805,6.4189758l2.4799805,6.9954224L1212-115.4313965l2.4799805,6.6023865l2.4799805,7.0740051l2.4799805,5.3186035
			l2.4801025,7.5718079l2.4799805,5.7115784l2.4799805,5.6592102l2.4799805,5.8164063l2.4799805,6.1307983l2.4801025,5.9997864
			l2.4799805,6.1046143l2.4799805,6.2879944l2.4799805,6.6809998l2.4799805,5.737793l2.4799805,5.6592102l2.4799805,5.5805969
			l2.4799805,5.8425903l2.4801025,5.9736023l2.4799805,5.7378235l2.4799805,5.1351929l2.4799805,5.5281982l2.4799805,4.9779968
			l2.4801025,5.3186035l2.4799805,5.4757996l2.4799805,5.9736023L1274,31.6292114l2.4799805,4.2182007l2.4799805,4.8469849
			l2.4799805,5.6853943l2.4801025,5.0827942l2.4799805,4.3754272l2.4799805,5.0041809l2.4799805,5.1875916l2.4799805,4.87323
			l2.4801025,5.1351929l2.4799805,4.165802l2.4799805,4.5063782l2.4799805,4.3753967l2.4799805,4.2444153l2.4799805,4.1134033
			l2.4799805,4.6373901l2.4799805,4.0872192l2.4801025,4.296814l2.4799805,4.2443848l2.4799805,4.2443848l2.4799805,3.8513794
			l2.4799805,4.1134033l2.4801025,4.7160034l2.4799805,3.5632324l2.4799805,3.5108032L1336,142.5338135l2.4799805,3.9038086
			l2.4799805,3.0915527l2.4799805,4.1658325l2.4801025,3.2749634l2.4799805,3.3536377l2.4799805,3.4321899l2.4799805,3.5894165
			l2.4799805,2.6986084l2.4801025,3.5108032l2.4799805,3.0391846l2.4799805,3.170166l2.4799805,3.5370483l2.4799805,3.3011475
			l2.4799805,3.6680298l2.4799805,2.6199951l2.4799805,2.6986084l2.4801025,3.2487793l2.4799805,3.0130005l2.4799805,2.4890137
			l2.4799805,3.2487793l2.4799805,3.0916138l2.4801025,2.6724243l2.4799805,3.1964111l2.4799805,2.5151978L1398,221.5006104
			l2.4799805,2.2531738l2.4799805,2.7247925l2.4799805,2.4628296l2.4801025,2.7247925l2.4799805,2.4104004l2.4799805,2.4628296
			l2.4799805,2.0697632l2.4801025,1.8864136l2.4799805,2.0435791l2.4799805,2.3842163l2.4799805,2.017395l2.4798584,2.4365845
			l2.4802246,2.0960083l2.4798584,2.017395l2.4799805,2.017395l2.4799805,2.0960083l2.4799805,1.9912109l2.4801025,1.9912109
			l2.4799805,2.3317871l2.4799805,2.0435791l2.4801025,2.0436401l2.4799805,1.7030029l2.4799805,1.8339844l2.4799805,1.729187
			L1460,275.1057739l2.4799805,1.5720215l2.4799805,1.7030029l2.4799805,1.8864136l2.4799805,1.5719604l2.4801025,1.5196533
			l2.4799805,1.4671631l2.4799805,1.729187l2.4801025,1.44104l2.4799805,1.5719604l2.4799805,1.6506348l2.4799805,1.1790161
			l2.4798584,1.4147949l2.4802246,1.0479736l2.4798584,1.3886108l2.4799805,1.5720215l2.4799805,1.5457764l2.4799805,1.1004028
			l2.4801025,0.7860107l2.4799805,1.3361816l2.4799805,1.152771l2.4801025,0.8122559l2.4799805,0.7859497l2.4799805,1.2838135
			l2.4799805,0.9432373L1522,308.6417847l2.4799805,1.3624268l2.4799805,1.0479736l2.4799805,0.7073975l2.4799805,0.3930054
			l2.4801025,0.9694214l2.4799805,0.7073975l2.4799805,1.0217896l2.4801025,0.6812134l2.4799805,1.0742188l2.4799805,0.6026001
			l2.4799805,0.9693604l2.4798584,0.7073975l2.4802246,1.0217896l2.4798584,0.9694214l2.4799805,0.7860107l2.4799805,0.6549683
			l2.4799805,0.6550293l2.4801025,0.6287842l2.4799805,0.6287842l2.4799805,0.6550293l2.4801025,0.7073975l2.4799805,0.864624
			l2.4799805,0.6549683l2.4799805,0.6550293L1584,328.84198l2.4799805,0.7860107l2.4799805,0.4716187l2.4799805,0.4191895
			l2.4799805,0.6550293l2.4801025,0.4453735l2.4799805,0.576416l2.4799805,0.5501709l2.4801025,0.4716187l2.4799805,0.3143921
			l2.4799805,0.4453735l2.4799805,0.5240479l2.4798584,0.4453735l2.4802246,0.3668213l2.4798584,0.6549683l2.4799805,0.3668213
			l2.4799805,0.5501709l2.4799805,0.4978027l2.4801025,0.3668213l2.4799805,0.4716187l2.4799805,0.3930054l2.4801025,0.4453735
			l2.4799805,0.3405762l2.4799805,0.4192505l2.4799805,0.4715576L1646,340.7630005l2.4799805,0.3668213l2.4799805,0.3930054
			l2.4799805,0.3929443l2.4799805,0.3930054l2.4801025,0.4192505l2.4799805,0.3405762l2.4799805,0.3668213l2.4801025,0.4978027
			l2.4799805,0.2357788l2.4799805,0.4191895l2.4799805,0.3668213l2.4798584,0.4453735l2.4802246,0.1834106l2.4798584,0.3930054
			l2.4799805,0.2357788l2.4799805,0.3668213l2.4799805,0.288208l2.4801025,0.3143921l2.4799805,0.3668213l2.4799805,0.2095947
			l2.4801025,0.2357788l2.4799805,0.3143921l2.4799805,0.4191895l2.4799805,0.1310425L1708,349.1469727l2.4799805,0.2620239
			l2.4799805,0.1834106l2.4799805,0.1571655l2.4799805,0.1572266l2.4801025,0.2620239l2.4799805,0.3930054l2.4799805,0.1571655
			l2.4801025,0.1834106l2.4799805,0.2357788l2.4799805,0.2358398l2.4799805,0.1833496l2.4798584,0.0786133l2.4802246,0.1310425
			l2.4798584,0.2619629l2.4799805,0.2620239l2.4799805,0.2357788l2.4799805,0.1309814l2.4801025,0.1572266l2.4799805,0.1834106
			l2.4799805,0.1834106l2.4801025,0.1047974l2.4799805,0.1571655l2.4799805,0.1310425l2.4799805,0.2357788L1770,354.0463867
			l2.4799805,0.1834106l2.4799805,0.2357788l2.4799805,0.1572266l2.4799805,0.2620239l2.4801025,0.0785522l2.4799805,0.1310425
			l2.4799805,0.2619629l2.4801025,0.2095947l2.4799805,0.1047974l2.4799805,0.0786133l2.4799805,0.1047974l2.4798584,0.1047974
			l2.4802246,0.1310425l2.4798584,0.2619629l2.4799805,0.1572266l2.4799805,0.1571655l2.4799805,0.1572266l2.4801025,0.1571655
			l2.4799805,0.2096558l2.4799805,0.2357788l2.4801025,0.1571655l2.4799805,0.1047974l2.4799805,0.2096558l2.4799805,0.1833496
			L1832,358.3170166l2.4799805,0.1571655l2.4799805,0.2620239l2.4799805,0.1309814l2.4799805,0.1572266l2.4801025,0.1309814
			l2.4799805,0.0786133l2.4799805,0.1047974l2.4801025,0.0523682l2.4799805,0.2096558l2.4799805,0.1309814l2.4799805,0.2357788
			l2.4798584,0.3143921l2.4802246,0.1572266l2.4798584,0.1047974l2.4799805,0.1309814l2.4799805,0.0261841l2.4799805,0.1310425
			l2.4801025,0.1309814l2.4799805,0.1309814l2.4799805,0.1310425l2.4801025,0.2095947l2.4799805,0.2095947l2.4799805,0.1047974
			l2.4799805,0.1309814L1894,362.2470093l2.4799805,0.3405762l2.4799805,0.1047974l2.4802246,0.2095947l2.4797363,0.1047974
			l2.4801025,0.1310425l2.4799805,0.1047974l2.4799805,0.0786133l2.4801025,0.3143921l2.4799805,0.1571655l2.4799805,0.0524292
			l2.4799805,0.1571655l2.4798584,0.0786133l2.4801025,0.1309814l2.4799805,0.1834106l2.4801025,0.1047974l2.4798584,0.0262451
			l2.4801025,0.0523682l2.4799805,0.2095947l2.4799805,0.2095947l2.4799805,0.1047974l2.4799805,0.0262451l2.4799805,0.1833496
			l2.4801025,0.1310425l2.4798584,0.2357788L1956,365.8887939l2.4801025,0.2095947l2.4798584,0.0786133l2.4801025,0.0523682
			l2.4799805,0.0786133l2.4799805,0.0786133l2.4799805,0.1834106l2.4799805,0.0523682l2.4799805,0.0786133l2.4801025,0.1834106
			l2.4798584,0.2357788l2.4801025,0.1834106l2.4799805,0.1572266l2.4799805,0.1834106l2.4799805,0.0785522l2.4801025,0.1572266
			l2.4798584,0.2095947l2.4801025,0.2095947l2.4799805,0.1309814l2.4799805,0.2095947l2.4799805,0.3144531l2.4799805,0.1309814
			l2.4799805,0.1834106l2.4801025,0.2095947l2.4798584,0.2095947L2018,369.8712158l2.4801025,0.2095947l2.4798584,0.0786133
			l2.4801025,0.1309814l2.4799805,0.0523682L2030.4000244,370.5l2.4799805,0.1834106l2.4799805,0.1571655l2.4799805,0.1572266
			l2.4801025,0.2620239l2.4798584,0.1571655l2.4801025,0.2095947l2.4799805,0.1047974l2.4799805,0.2095947l2.4799805,0.2095947
			l2.4802246,0.1047974l2.4797363,0.3144531l2.4802246,0.1571655l2.4799805,0.288208l2.4799805,0.0786133l2.4799805,0.1571655
			l2.4799805,0.2095947l2.4799805,0.2620239l2.4799805,0.1572266l2.4799805,0.1309814L2080,374.246582l2.4799805,0.2095947
			l2.4799805,0.1310425l2.4799805,0.2095947l2.4799805,0.1834106l2.4799805,0.1833496l2.4799805,0.1047974l2.4799805,0.0524292
			l2.4799805,0.2620239l2.4802246,0.1047974l2.4797363,0.1571655l2.4802246,0.1834106l2.4799805,0.1047974l2.4799805,0.1047974
			l2.4799805,0.2357788l2.4802246,0.1834106l2.4797363,0.1572266l2.4802246,0.1834106l2.4799805,0.1834106l2.4799805,0.1571655
			l2.4799805,0.2620239l2.4799805,0.288208l2.4799805,0.2357788l2.4799805,0.1047974l2.4799805,0.2357788L2142,378.7529907
			l2.4799805,0.1572266l2.4799805,0.288208l2.4799805,0.2095947l2.4799805,0.2357788l2.4799805,0.1309814l2.4799805,0.1047974
			l2.4799805,0.2095947l2.4799805,0.1310425l2.4802246,0.288208l2.4797363,0.2095947l2.4802246,0.0785522l2.4799805,0.288208
			l2.4799805,0.3143921l2.4799805,0.1834106l2.4802246,0.0786133l2.4797363,0.1834106l2.4802246,0.2357788l2.4799805,0.1047974
			l2.4799805,0.2358398l2.4799805,0.3405762l2.4799805,0.2357788l2.4799805,0.1834106l2.4799805,0.2358398l2.4799805,0.3143921
			L2204,384.0192261l2.4799805,0.2357788l2.4799805,0.3143921l2.4799805,0.2620239l2.4799805,0.3405762l2.4799805,0.1572266
			l2.4799805,0.3143921l2.4799805,0.4453735l2.4799805,0.2620239l2.4802246,0.1834106l2.4797363,0.1047974l2.4802246,0.2619629
			l2.4799805,0.1310425l2.4799805,0.1833496l2.4799805,0.2358398l2.4802246,0.2095947l2.4797363,0.2095947l2.4802246,0.3405762
			l2.4799805,0.3143921l2.4799805,0.3930054l2.4799805,0.1834106l2.4799805,0.3143921l2.4799805,0.1572266l2.4799805,0.1834106
			l2.4799805,0.2619629L2266,390.2548218l2.4799805,0.2095947l2.4799805,0.3143921l2.4799805,0.288208l2.4799805,0.3405762
			l2.4799805,0.1834106l2.4799805,0.3143921l2.4799805,0.2357788l2.4799805,0.288208l2.4802246,0.0524292l2.4797363,0.2357788
			l2.4802246,0.2620239l2.4799805,0.4191895l2.4799805,0.2095947l2.4799805,0.2095947l2.4802246,0.3406372l2.4797363,0.2357788
			l2.4802246,0.288208l2.4799805,0.0786133l2.4799805,0.2619629l2.4799805,0.4191895l2.4799805,0.2620239l2.4799805,0.1047974
			l2.4799805,0.1834106l2.4799805,0.2619629L2328,396.647583l2.4799805,0.288208l2.4799805,0.3143921l2.4799805,0.2620239
			l2.4799805,0.4453735l2.4799805,0.288208l2.4799805,0.2620239l2.4799805,0.288208l2.4799805,0.2095947l2.4802246,0.1834106
			l2.4797363,0.1047974l2.4802246,0.2357788l2.4799805,0.2620239l2.4799805,0.0785522l2.4799805,0.1834106l2.4802246,0.1309814
			l2.4797363,0.288208l2.4802246,0.1572266l2.4799805,0.1309814l2.4799805,0.2620239l2.4799805,0.2357788l2.4799805,0.2095947
			l2.4799805,0.3143921l2.4799805,0.3406372l2.4799805,0.1571655L2390,402.4639893l2.4799805,0.2620239l2.4799805,0.3143921
			l2.4799805,0.2357788l2.4799805,0.2620239l2.4799805,0.3143921l2.4799805,0.3405762l2.4799805,0.1310425l2.4799805,0.1834106
			l2.4802246,0.1833496l2.4797363,0.1047974l2.4802246,0.2095947l2.4799805,0.1572266l2.4799805,0.2357788l2.4799805,0.2358398
			l2.4802246,0.3405762l2.4797363,0.2095947l2.4802246,0.3143921l2.4799805,0.2358398l2.4799805,0.2619629l2.4799805,0.0786133
			l2.4799805,0.1572266l2.4799805,0.3930054l2.4799805,0.2357788l2.4799805,0.3405762L2452,408.411377l2.4799805,0.2620239
			l2.4799805,0.2620239l2.4799805,0.2095947l2.4799805,0.1834106l2.4799805,0.2619629l2.4799805,0.1834106l2.4799805,0.2357788
			l2.4799805,0.2095947l2.4802246,0.2358398l2.4797363,0.1834106l2.4802246,0.2357788l2.4799805,0.2095947l2.4799805,0.1309814
			l2.4799805,0.2620239l2.4802246,0.3143921l2.4797363,0.1572266l2.4802246,0.3405762l2.4799805,0.288208l2.4799805,0.1309814
			l2.4799805,0.1309814l2.4799805,0.1834106l2.4799805,0.2620239l2.4799805,0.288208l2.4799805,0.2619629L2514,414.0443726
			l2.4799805,0.2358398l2.4799805,0.4191895l2.4799805,0.3930054l2.4799805,0.3668213l2.4799805,0.0785522l2.4799805,0.3668213
			l2.4799805,0.2095947l2.4799805,0.2620239l2.4802246,0.2619629l2.4797363,0.3930054l2.4802246,0.1572266l2.4799805,0.1571655
			l2.4799805,0.1047974l2.4799805,0.1572266l2.4802246,0.2357788l2.4797363,0.2358398l2.4802246,0.1833496l2.4799805,0.1047974
			l2.4799805,0.1834106l2.4799805,0.1834106l2.4799805,0.1047974l2.4799805,0.2095947l2.4799805,0.1834106l2.4799805,0.0524292
			L2576,419.4940186l2.4799805,0.2357788l2.4799805,0.3405762l2.4799805,0.2358398l2.4799805,0.2095947l2.4799805,0.1834106
			l2.4799805,0.2619629l2.4799805,0.2620239l2.4799805,0.2095947l2.4802246,0.1572266l2.4797363,0.2357788l2.4802246,0.0786133
			l2.4799805,0.2357788l2.4799805,0.288208l2.4799805,0.1309814l2.4802246,0.1310425l2.4797363,0.1571655l2.4802246,0.1834106
			l2.4799805,0.288208l2.4799805,0.1047974l2.4799805,0.2619629l2.4799805,0.2358398l2.4799805,0.1834106l2.4799805,0.2095947
			l2.4799805,0.1571655L2638,424.49823"/>
		<line class="st10" x1="1150" y1="344.9025879" x2="2638" y2="344.9025879"/>
	</g>
</g>
</svg>
